title,url
Alpine,"https://alpinelinux.org"
Awk,"https://www.cs.princeton.edu/~bwk/btl.mirror"
Bash,"https://www.gnu.org/software/bash"
Blender,"https://www.blender.org"
C,"https://en.wikipedia.org/wiki/C_(programming_language)"
Developer,"https://en.wikipedia.org/wiki/Software_developer"
Embedded,"https://en.wikipedia.org/wiki/Embedded_system"
Engineering,"https://en.wikipedia.org/wiki/Software_engineering"
Flask,"https://flask.pocoo.org"
Free,"https://en.wikipedia.org/wiki/Free_as_in_Freedom"
Gentoo,"https://gentoo.org"
Hardware,"https://en.wikipedia.org/wiki/Computer_hardware"
Inkscape,"https://inkscape.org"
Interfaces,"https://en.wikipedia.org/wiki/Interface_(computing)"
Kernel,"https://en.wikipedia.org/wiki/Kernel_(operating_system)"
KVM,"https://www.linux-kvm.org"
Linux,"https://www.kernel.org"
Lisp,"https://en.wikipedia.org/wiki/Lisp_(programming_language)"
Lua,"https://www.lua.org"
OS,"https://en.wikipedia.org/wiki/Operating_system"
OpenSource,"https://en.wikipedia.org/wiki/Open-source_software"
Posix,"https://en.wikipedia.org/wiki/POSIX"
Programming,"https://en.wikipedia.org/wiki/Computer_programming"
Qemu,"https://www.qemu.org"
Python,"https://www.python.org"
Science,"https://en.wikipedia.org/wiki/Computer_science"
SystemProgramming,"https://en.wikipedia.org/wiki/System_programming"
Software,"https://en.wikipedia.org/wiki/Software"
SVG,"https://www.w3.org/Graphics/SVG"
UNIX,"https://opengroup.org/unix"
Virtualization,"https://en.wikipedia.org/wiki/Virtualization"
