name,channel,streaming_url,
WMNF,88.5,"www.wmnf.org/streaming-player",
WSLR,96.5,"wslr.org/wslr-popup-player",
WSMR,89.1,"wusf.usf.edu/d7player/?stream=wsmr",
WUSF,89.7,"wusf.usf.edu/d7player/?stream=wusf",